LEKID Tag,microwave_f0,mm_f0
0,2010000000.0,180000000000.0
1,2013453237.4100718,178863234114.5862
2,2217194244.6043167,177733647321.8293
3,2220647482.0143886,176611194283.13144
4,2424388489.208633,175495829946.2245
5,2427841726.618705,174387509543.362
6,2148129496.402878,173286188589.5222
7,2151582733.8129497,172191822880.62247
8,2355323741.007194,171104368491.74524
9,2358776978.4172664,170023781775.3748
10,2079064748.201439,168950019359.64542
11,2082517985.6115108,167883038146.60074
12,2286258992.8057556,166822795310.46365
13,2289712230.2158275,165769248295.9175
14,2016906474.820144,164722354816.39816
15,2020359712.2302158,163682072852.39645
16,2224100719.4244604,162648360649.7719
17,2227553956.8345323,161621176718.0767
18,2431294964.028777,160600479828.89038
19,2434748201.438849,159586229014.165
20,2155035971.2230215,158578383564.58093
21,2158489208.6330934,157576903027.91275
22,2362230215.827338,156581747207.4056
23,2365683453.23741,155592876160.16193
24,2085971223.0215828,154610250195.53812
25,2089424460.4316547,153633829873.5516
26,2293165467.6258993,152663576003.2976
27,2296618705.035971,151699449641.37637
28,2023812949.6402879,150741412090.3299
29,2027266187.0503597,149789424897.08884
30,2231007194.244604,148843449851.42908
31,2234460431.6546764,147903448984.43796
32,2438201438.848921,146969384566.9905
33,2441654676.2589927,146041219108.2349
34,2161942446.0431657,145118915354.08777
35,2165395683.4532375,144202436285.73898
36,2369136690.647482,143291745118.16577
37,2372589928.057554,142386805298.65613
38,2092877697.8417265,141487580505.34186
39,2096330935.2517986,140594034645.74072
40,2300071942.446043,139706131855.30762
41,2303525179.8561153,138823836495.9952
42,2030719424.4604316,137947113154.82352
43,2034172661.8705037,137075926642.45842
44,2237913669.0647483,136210241991.7994
45,2241366906.47482,135350024456.57588
46,2445107913.6690645,134495239509.95279
47,2448561151.079137,133645852843.14464
48,2168848920.8633094,132801830364.03844
49,2172302158.273381,131963138195.8254
50,2376043165.467626,131129742675.64119
51,2379496402.877698,130301610353.21475
52,2099784172.6618705,129478707989.52579
53,2103237410.0719423,128661002555.47054
54,2306978417.266187,127848461230.53612
55,2310431654.676259,127041051401.48323
56,2037625899.2805755,126238740661.0371
57,2041079136.6906476,125441496806.58675
58,2244820143.884892,124649287838.89246
59,2248273381.294964,123862081960.80148
60,2452014388.4892087,123079847575.97168
61,2455467625.8992805,122302553287.6034
62,2175755395.683453,121530167897.17923
63,2179208633.093525,120762660403.21188
64,2382949640.28777,119999999999.99977
65,1895000000.0,0.0
 + Dark,1795000000.0,0.0
